{
    "id":"skoda-mb-v8",
    "languages":[
        "cs"
    ],
    "drawing": {
            "id":42,
            "levels":[
                {
                    "id":"skoda-mb-v8-0",
                    "group_id":"0",
                    "building_id": "skoda-mb-v8",
                    "properties":{
                        "name":"0",
                        "type":"indoor",
                        "zlevel":0,
                        "main":true
                    },
                    "grid_axes": {
                        "top_left_x": 14.91787,
                        "top_left_y": 50.41728,
                        "top_right_x": 14.91826,
                        "top_right_y": 50.41690,
                        "bottom_left_x": 14.91898,
                        "bottom_left_y": 50.41778
                    },
                    
                    "obj_type":"Level"
                },
                {
                    "id":"skoda-mb-v8-1",
                    "group_id":"1",
                    "building_id": "skoda-mb-v8",
                    "properties":{
                        "name":"1",
                        "type":"indoor",
                        "zlevel":1,
                        "main":false
                    },
                    "grid_axes": {
                        "top_left_x": 14.91788,
                        "top_left_y": 50.41728,
                        "top_right_x": 14.91901,
                        "top_right_y": 50.41777,
                        "bottom_left_x": 14.91825,
                        "bottom_left_y": 50.41693
                    },
                    
                    "obj_type":"Level"
                },
                {
                    "id":"skoda-mb-v8-2",
                    "group_id":"2",
                    "building_id": "skoda-mb-v8",
                    "properties":{
                        "name":"2",
                        "type":"indoor",
                        "zlevel":2,
                        "main":false
                    },
                    "grid_axes": {
                        "top_left_x": 14.91788,
                        "top_left_y": 50.41728,
                        "top_right_x": 14.91900,
                        "top_right_y": 50.41776,
                        "bottom_left_x": 14.91817,
                        "bottom_left_y": 50.41698
                    },
                    "obj_type":"Level"
                }
            ],
            "properties":{
                "is_root":true,
                "display_name":"V8",
                "map_type":"building",
                "name":"V8 building"
            },
            "obj_type":"Drawing"
        }
    ,
    "location":{
        "type":"Point",
        "coordinates":[
            14.9181071, 
            50.4171682
        ]
    },
    "properties":{
        "description":"Škoda Auto budova V8",
        "name":"V8"
    },
    "obj_type":"DXFMap"
}