{
"type": "FeatureCollection",
                                                                                
"features": [
{ "type": "Feature", "id": 0, "properties": { "id": 0, "level": "skoda-mb-0", "placement": "outside", "uniqueId": "skoda-mb|1", "from": null, "to": null }, "geometry": { "type": "Point", "coordinates": [ 14.919078432992976, 50.417676912559479 ] } },
{ "type": "Feature", "id": 1, "properties": { "id": 1, "level": "skoda-mb-0", "placement": "outside", "uniqueId": "skoda-mb|5", "from": null, "to": null }, "geometry": { "type": "Point", "coordinates": [ 14.918545839766528, 50.415780247025644 ] } },
{ "type": "Feature", "id": 2, "properties": { "id": 2, "level": "skoda-mb-0", "placement": "outside", "uniqueId": "skoda-mb|4", "from": null, "to": null }, "geometry": { "type": "Point", "coordinates": [ 14.919613862839153, 50.417144665547475 ] } },
{ "type": "Feature", "id": 3, "properties": { "id": 3, "level": "skoda-mb-0", "placement": "outside", "uniqueId": "skoda-mb|3", "from": null, "to": null }, "geometry": { "type": "Point", "coordinates": [ 14.919584534555268, 50.41717894124448 ] } },
{ "type": "Feature", "id": 4, "properties": { "id": 4, "level": "skoda-mb-0", "placement": "outside", "uniqueId": "skoda-mb|2", "from": null, "to": null }, "geometry": { "type": "Point", "coordinates": [ 14.919439163418089, 50.417349574156852 ] } },
{ "type": "Feature", "id": 5, "properties": { "id": 5, "level": null, "placement": null, "uniqueId": null, "from": "skoda-mb-v12|skoda-mb-v12-0|2265", "to": "skoda-mb|5" }, "geometry": { "type": "LineString", "coordinates": [ [ 14.91945, 50.41549 ], [ 14.918547128276206, 50.415776890052335 ] ] } },
{ "type": "Feature", "id": 6, "properties": { "id": 6, "level": null, "placement": null, "uniqueId": null, "from": "skoda-mb|5", "to": "skoda-mb-v12|skoda-mb-v12-0|2265" }, "geometry": { "type": "LineString", "coordinates": [ [ 14.918544114023295, 50.41577977112847 ], [ 14.91945, 50.41549 ] ] } },
{ "type": "Feature", "id": 7, "properties": { "id": 7, "level": null, "placement": null, "uniqueId": null, "from": "skoda-mb|4", "to": "skoda-mb|5" }, "geometry": { "type": "LineString", "coordinates": [ [ 14.919614616402368, 50.41714514571288 ], [ 14.918544332640076, 50.415778326307624 ] ] } },
{ "type": "Feature", "id": 8, "properties": { "id": 8, "level": null, "placement": null, "uniqueId": null, "from": "skoda-mb|5", "to": "skoda-mb|4" }, "geometry": { "type": "LineString", "coordinates": [ [ 14.918542825513619, 50.415777365948891 ], [ 14.919614616402368, 50.41714418538163 ] ] } },
{ "type": "Feature", "id": 9, "properties": { "id": 9, "level": null, "placement": null, "uniqueId": null, "from": "skoda-mb|3", "to": "skoda-mb|4" }, "geometry": { "type": "LineString", "coordinates": [ [ 14.919584534555263, 50.417178941244458 ], [ 14.919615369965594, 50.417144665547148 ] ] } },
{ "type": "Feature", "id": 10, "properties": { "id": 10, "level": null, "placement": null, "uniqueId": null, "from": "skoda-mb|4", "to": "skoda-mb|3" }, "geometry": { "type": "LineString", "coordinates": [ [ 14.919616877092054, 50.417145145713093 ], [ 14.919584534555263, 50.417178941244458 ] ] } },
{ "type": "Feature", "id": 11, "properties": { "id": 11, "level": null, "placement": null, "uniqueId": null, "from": "skoda-mb|2", "to": "skoda-mb|3" }, "geometry": { "type": "LineString", "coordinates": [ [ 14.919439163418076, 50.417349574156852 ], [ 14.919584534555263, 50.417178941244458 ] ] } },
{ "type": "Feature", "id": 12, "properties": { "id": 12, "level": null, "placement": null, "uniqueId": null, "from": "skoda-mb|3", "to": "skoda-mb|2" }, "geometry": { "type": "LineString", "coordinates": [ [ 14.919584534555263, 50.417178941244458 ], [ 14.919439163418076, 50.417349574156852 ] ] } },
{ "type": "Feature", "id": 13, "properties": { "id": 13, "level": null, "placement": null, "uniqueId": null, "from": "skoda-mb|1", "to": "skoda-mb|2" }, "geometry": { "type": "LineString", "coordinates": [ [ 14.919078432992976, 50.417676912559479 ], [ 14.919439163418089, 50.417349574156852 ] ] } },
{ "type": "Feature", "id": 14, "properties": { "id": 14, "level": null, "placement": null, "uniqueId": null, "from": "skoda-mb|2", "to": "skoda-mb|1" }, "geometry": { "type": "LineString", "coordinates": [ [ 14.919439163418089, 50.417349574156852 ], [ 14.919078432992976, 50.417676912559479 ] ] } },
{ "type": "Feature", "id": 15, "properties": { "id": 15, "level": null, "placement": null, "uniqueId": null, "from": "skoda-mb|1", "to": "skoda-mb-v8|skoda-mb-v8-0|6743" }, "geometry": { "type": "LineString", "coordinates": [ [ 14.919079940119426, 50.417676432398842 ], [ 14.918989316465266, 50.417657110234266 ] ] } },
{ "type": "Feature", "id": 16, "properties": { "id": 16, "level": null, "placement": null, "uniqueId": null, "from": "skoda-mb-v8|skoda-mb-v8-0|6743", "to": "skoda-mb|1" }, "geometry": { "type": "LineString", "coordinates": [ [ 14.918989316465266, 50.417657110234266 ], [ 14.919076925866516, 50.417676432399453 ] ] } }
]
}
